C:\CNAM\CPE\JEE2\Project\user\userLib\src\main\java\fr\cpe\jee2\dto\constantes\ConstanteUser.java
C:\CNAM\CPE\JEE2\Project\user\userLib\src\main\java\fr\cpe\jee2\dto\UserDisplayDTO.java
C:\CNAM\CPE\JEE2\Project\user\userLib\src\main\java\fr\cpe\jee2\dto\UserModelDTO.java
